{
	"input": {
		"s3_initial_export": {
			"bucket":"haris-inovolon-copy-test-bucket",
			"partition_key": "nb_run",
			"prefixes":[
				{
					"run_id":"1",
					"name":"33aa070c-e9b6-4d8a-ac06-088da504c404/export"
				}
			]
		},

		"athena": {
			"database_name":"analytics_snhp_rs",
			"table_properties": {
				"bucket": "haris-inovolon-ouput-bucket",
				"prefix":"analytics_snhp_rs/analytics_snhp_rs_my2020_450k_aws/",
				"delimiter": "\t"
			}
		}
	},
	"output":{
		"athena": {
			"statistics": {
				"database_name": "analytics_snhp_rs",
				"partition_column": "nb_run",
				"partition_value_to_query": "1",
				"file_name": "query_stats_1x.csv",
				"athena_query_output_location":"s3://haris-inovolon-ouput-bucket/athena_output/",
				"workgroup": "primary",
				"region": "us-east-1"
			}
		},
		"s3_optimized_export": {
			"bucket":"haris-inovolon-ouput-bucket",
			"schema":"analytics_snhp_rs/analytics_snhp_rs_my2020_450k_aws"
		}
	}
}
